Canais por Subsetores,Livrarias,Distribuidores,Livrarias exclusivamente virtuais,Escolas e Colégios,Internet – Market Place,Outros
Didáticos - Exemplares,36.26,30.22,10.66,16.41,3.8,2.64
Didáticos - Faturamento,38.09,30.5,12.34,11.97,6.57,0.53
Obras Gerais - Exemplares,57.67,13.15,12.9,2.94,3.45,9.89
Obras Gerais - Faturamento,57.93,15.52,13.68,2.89,2.47,7.51
Religiosos - Exemplares,38.62,13.13,25,15.57,0.97,6.72
Religiosos - Faturamento,32.54,24.97,14.12,14.04,4.6,9.73
CTP - Exemplares,31.09,25.52,25.79,3.37,5.27,8.96
CTP - Faturamento,28.73,26.11,20.3,6.04,5.87,12.95
